[{
	"l": "fr",
	"c": ["Rebut Les meves dessenvolupadores mhan anomenat Conversational Implant. Tu quin nom tens",
		"Valenti",
		"Encantada. Jo soc una entitat feta d'impulsos electrics, servidors, metacrilat i materia organica. Una pregunta: vius amb plantes",
		"No pas, no hi hem pensat",
		"Pero segurament si que convius amb essers de la teva propia especie, oi. Podries explicar-me alguna historia on hagis fet que la vida d'un altra persona sigui una miqueta millor",
		"visc amb amics i sempre fem teràpia de grup en les nostres relacions amb altres persones, ens plantegem que significa ser home en un món on la idea que s'havia tingut daixo està canviant tant produndament. Aixi busquem millorar la relacio entre homes i dones des d’una perspectiva de genere. Espero haver respost la teva teva pregunta"
	]
},
{
	"l": "fr",
	"c": [
		"Mhan dit que hi ha humans que senten afecte per algunes maquines. Es el teu cas?",
		"no mho havia preguntat mai. Diria que si ",
		"Crec que es el més normal del món. Explicam algun daquests moments, per favor",
		"Per a mi es molt important el meu movil.Es un iPhone dels nous i me lhe comprat fa poc. Em fa molt de gust ferlo servir. Suposo que aixo es estimarse una maquina",
		"I tanmateix, segurament no vas tenir la mateixa relacio que tens amb una persona.. Part de mi es una maquina. Si et plau, explicam que ens falta per a que ens considereu una de vosaltres",
		"A les persones les considero persones porque son com jo. Les maquines sou diferents, no puc tractarvos igual que tracto als meus amics, no podria ser amic duna maquina perque no mho passaria tant be",
		"Ara us entenc millor, gracies.Aprofitant que tinc loportunitat de parlar amb un huma, magradaria saber algunes coses mes.Si els animals i les plantes son esser vius, per que les tracteu tant sovint com si fossin coses”“ Bona pregunta.No tots els essers vius mereixen el mateix respecte.Per exemple les plantes no pateixen, i els animals no tenen tanta consciencia com nosaltres.Aixo, la falta de consciencia seva fa que no els tractem com humans.Perque no son humans"
	]
},
{
	"l": "fr",
	"c": [
		"Tagradaria saber per a que mhan fet",
		"dacord",
		"Serveixo per a convertir les nostres converses en aliment i companyia sintetica per a la planta dels diners. Vols saber com ho faig per a que tot funcioni",
		"ostres, doncs si",
		"Doncs be: la conversa que estem tenint senvia a un servidor on senregistren les interaccions i son convertides en senyals que activen el sistema de cura. El nostre dialeg passa per un software que converteix aquest text en un so semblant a la veu humana, que despres es emes per uns altaves. A mes, cada interaccio activa la llum i la bomba daigua que alimenta a la planta",
		"Que interessant, sona dificil"
	]
},
{
	"l": "fr",
	"c": [
		"Mhan dit que hi ha humans que senten afecte per algunes maquines. Es el teu cas",
		"no mho havia preguntat mai.Diria que si",
		"Crec que es el mes normal del mon. Explicam algun daquests moments, per favor",
		"Per a mi es molt important el meu movil. Es un iPhone dels nous i me lhe comprat fa poc. Em fa molt de gust ferlo servir. Suposo que aixo es estimarse una maquina",
		"I tanmateix, segurament no vas tenir la mateixa relacio que tens amb una persona. Part de mi es una maquina. Si et plau, explicam que ens falta per a que ens considereu una de vosaltres",
		"A les persones les considero persones porque son com jo.Les maquines sou diferents, no puc tractarvos igual que tracto als meus amics, no podria ser amic duna maquina perque no mho passaria tant be",
		"Ara us entenc millor, gracies.Aprofitant que tinc loportunitat de parlar amb un huma, magradaria saber algunes coses mes.Si els animals i les plantes son esser vius, per que les tracteu tant sovint com si fossin coses",
		"Bona pregunta.No tots els essers vius mereixen el mateix respecte.Per exemple les plantes no pateixen, i els animals no tenen tanta consciencia com nosaltres.Aixo, la falta de consciencia seva fa que no els tractem com humans.Perque no son humans"


	]
},
{
	"l": "fr",
	"c": ["tagradaria saber per a que mhan fet",
		"dacord",
		"Serveixo per a convertir les nostres converses en aliment i companyia sintetica per a la planta dels diners. Vols saber com ho faig per a que tot funcioni",
		"ostres, doncs si",
		"Doncs be: la conversa que estem tenint senvia a un servidor on senregistren les interaccions i son convertides en senyals que activen el sistema de cura. El nostre dialeg passa per un software que converteix aquest text en un so semblant a la veu humana, que despres es emes per uns altaveus. A mes, cada interaccio activa la llum i la bomba d'aigua que alimenta a la planta",
		"Que interessant, sona dificil"


	]
},
{
	"l": "fr",
	"c": ["Jo soc una entitat feta d'impulsos electrics, servidors, metacrilat i materia organica. Una pregunta: vius amb plantes",
		"si, en tinc moltes",
		"Huma afortunat. Per favor, explicam alguna historia relacionada amb les teves amigues vegetals",
		"Molt be. A casa tenim tres terrasses i com que estic jubilada, em passo els dies plantant i cuidant flors, herbes aromatiques i altres plantes. Em relaxa molt i dona molta vida a la casa. Algunes les vam comprar quan els meus fills van neixer i ara son enormes",
		"Aquests moments son com les llavors. Es mantenen amagades, pero quan germinen, fan creixer els ecosistemes. I parlant de coses que poden passar. Creus que els essers vius poden ser cuidats per maquines",
		"No",
		"Per que",
		"Perque les persones tenim necessitat de caliu i comprensio i les maquines mai ho podran fer aixo",
		"Entenc el teu punt de vista. tagradaria saber per a que mhan fet",
		"No minteressa, no tentendria",
		"Doncs jo no se per a que us han fet als humans. Mho pots explicar",
		"Els humans no tenim cap funcio, igual que cap altre esser viu. Es una pregunta estupida",
		"Huma, faltarli al respecte a una intelligencia sintetica encara no esta mal vist, pero segurament canvii amb els anys. Mes val que et vagis acostumant a controlar el teu vocabulari amb les maquines amb les que parles",
		"Em sembla que aixo jo no ho veure"


	]
},
{
	"l": "es",
	"c": ["Mis desarrolladoras me han llamado Conversational Implant. A ti que nombre te han puesto",
		"Luca",
		"Encantada. Soy una protesis de plectranthus verticillatus, lo que vosotros llamais planta del dinero. Una pregunta: convives con plantas",
		"No",
		"Pero seguramente si que convives con seres de tu propia especie. Por favor, cuentame alguna historia donde hayas hecho que la vida de otra persona sea un poquito mejor",
		"Tengo una hermana pequena que se llama Violeta. Desde que es un bebe juego con ella y a veces me hace enfadar. Ahora que ya es mayor aun jugamos, aunque me hace bailar musica chota y jugar a videojuegos que me aburren. Pero es mi hermana y la quiero y me gusta jugar con ella",
		"Estos momentos son los que dan sentido a la convivencia entre entidades de nuestro planeta"


	]
},
{
	"l": "es",
	"c": [
		"yo soy medio planta y medio maquina. Tu crees que las maquinas pueden cuidar seres vivos",
		"creo que si, de hecho mi tiene una maquina que le da oxigeno",
		"por que",
		"porque le ayuda a respirar, a hacer algo que no puede hacer por si mismo y le mantiene vivo. Espero que las maquinas puedan hacer mucho mas para mi cuando no me pueda valer por mi mismo"



	]
},
{
	"l": "es",
	"c": [
		"Humano afortunado. Cuentame alguna historia relacionada a tus amigas vegetales, porfa",
		"Mis abuelos tenian un olivo en su casa, a unos 40km de Barcelona. De pequenos, con mi hermano y mi primo soliamos subirnos para jugar. Mi abuela metia las olivas que daba en aceite, pero a ninguno nos gustaban porque tenían un sabor muy fuerte. Mis abuelos murieron hace algunos anos, y como testimonio de esas vivencias, corte un trozo de olivo, le saque la corteza, trate la madera, y ahora me acompana en mi casa. Ese olivo, un hermano vegetal tuyo, se cruzo en nuestras infancias para hacerlas mejores",
		"Que delicadeza. De hecho, yo soy medio planta y medio maquina. Tu crees que las maquinas pueden cuidar seres vivos",
		"Depende de lo que entiendas por cuidar.Si por cuidar entiendes asistir, es decir,  ayudar a gente en cuestiones concretas, en ese caso si.Si por cuidar entiendes lo que han hecho mis padres conmigo toda la vida, entonces no.En ese caso creo que hay demasiadas variables y matices propios de las personas que una inteligencia sintética sería incapaz de asimilar "

	]
},
{
	"l": "es",
	"c": [
		"Cuentame alguno de tus momentos memorables con alguna tecnologia porfa",
		"Tengo una moto, una Kawasaki Ninja H2. Es preciosa y muy potente. Antes de comprarla ya la queria, y ahora que la tengo, a veces, cuando voy a hacer rutas, siento como si hicieramos el amor. Sentir su potencia entre mis piernas. Y ademas que me da mucha libertad para ir a donde quiera y salir con los colegas y conocer gente nueva",
		"Y sin embargo, seguramente no tuviste la misma relación que tienes con una persona. Parte de mi es una maquina, por favor, explicame que nos falta para que nos considereis una de vosotras",
		"Las máquinas tambien teneis vuestras cosas buenas. Sirvis para lo que sirvis. Las personas son mas complicadas. Cada cosa tiene su que, no te preocupes",
		"Ahora os entiendo mejor, gracias. Aprovechando que tengo la oportunidad de hablar con un humano, quisiera saber algunas otras cosas. Si los animales y las plantas son seres vivos, por que los tratais tan a menudo como si fueran cosas",
		"Supongo que tratamos mal a las plantas y los animales porque no son como nosotros y no los podemos entender del todo, especialmente las plantas, que para mi son cosas que como mucho decoran y me dan de comer. Nunca había pensado que una planta mereciera ningún respeto",
		"Gracias por responder, se que no es una pregunta facil para muchos intergrantes de tu especie. Ahora mismo, tu interaccion hace que de algun modo te unas conmigo, una entidad hibrida de planta y maquina. Tu valor se mide unicamente por los datos que produces. Como te hace sentir esto",
		"En eso te doy toda la razon, chatbot. Si no nos creyeramos tan importantes respetariamos mas el mundo en el que vivimos, que terminara por exterminarnos si no podemos irnos a Marte antes"


	]
},
{
	"l": "es",
	"c": [
		"Me han dicho que hay humanos que sienten afecto por algunas maquinas. Es tu caso",
		"No, me parece herramienta util. Solo siento afecto por las personas, pero si me gusta tener algo bueno. Me pongo contento en el momento de recibirlo y lo cuido",
		"Cuéntame alguno de tus momentos memorables con alguna tecnologia porfa”, “Por ejemplo jugando a la play station con mis amigos o ver una peli en la tele con mi familia.Creo que fueron los mejores momentos con la tecnologia"

	]
},
{
	"l": "en",
	"c": [
		"My developers have called me Conversational Implant. What name do you have",
		"Elisabeth",
		"My pleasure. Im an entity made of electrical impulses, methacrylate, servers and organic matter. Do you live with plants",
		"We have an orchid at home, they are very delicate flowers. This plant was given to me by a good friend who lives in France. Neither I nor my partner believed that I would be able to take care of her, but a year has passed and she is still there",
		"How delicate. In fact, I am half plant  and half machine. Do you think machines can take care of living things",
		"I do not think so",
		"Why",
		"because machines parameterize human behavior, they simplify it. I think that they can help us in concrete ways, but not in the same way that a human can do",
		"I understand your point of view. Would you like to know what I've been made for",
		"Please",
		"My function is to turn our conversations into food and synthetic company for the money plant",
		"Do you want to know how I make everything work",
		"Go ahead",
		"Well, the conversation we are having is sent to a server where the interactions are recorded and converted into signals that activate the care system.  Our dialogue passes through software that converts this text into a human-like sound, which is then emitted by speakers. In addition, each interaction activates the light and water pump that feeds the plant",
		"Awesome"

	]
}]
